ObjectName,ObjectType,LocatorType,Locator,PageName
UserName,TEXTFIELD,CSS,#inputName,Login Screen
Password,TEXTFIELD,CSS,#pwd,Login Screen
Login,BUTTON,CSS,#signinForm > div.col-lg-12.col-md-12.col-sm-12.col-xs-12.no-padding.text-left.spaceafterbutton > button,
Logout_icon,IMAGE,CSS,#header > nav > div > div > div.header-right-sec > div > a > img,
,,,,
Navigation_second,HREF,CSS,#navigation > li:nth-child($I) > div > ul > li > a,
Navigation_third,HREF,CSS,#navigation > li:nth-child($J) > div > ul > li:nth-child($I) > div > ul > li > a,
Navigation_first,HREF,CSS,#navigation > li >a,
,,,,
CM_cid,TEXTFIELD,CSS,#lms_coursesCourseId,
CM_cid_search,BUTTON,CSS,#lms_coursesIndexForm > div.adminsearch > table > tbody > tr:nth-child(3) > td > span > div > input[type=submit],
CM_config,BUTTON,CSS,#container > div.courses.index > div > table > tbody > tr:nth-child(3) > td:nth-child(11) > a > img,
CM_cname,TEXTFIELD,CSS,#lms_coursesAnalyticsTitle,
CM_search_result,TEXT,CSS,#container > div.courses.index > div > table > tbody > tr:nth-child(3),
,,,,
CM_shortcode,TEXTFIELD,CSS,#lms_coursesMailchimpShortCode,
CM_shortname,TEXTFIELD,CSS,#lms_coursesShortName,
CM_welocomemail,TEXTFIELD,CSS,#lms_coursesMailchimpWelcomeMail,
CM_enrollemail,TEXTFIELD,CSS,#lms_coursesMailchimpEnrollMail,
CM_spwelcomemail,TEXTFIELD,CSS,#lms_coursesSparkpostWelcomeMail,
CM_spenrollmail,TEXTFIELD,CSS,#lms_coursesSparkpostEnrollMail,
CM_Trcount,TEXTFIELD,CSS,#lms_coursesHighPriorityTrialCount,
CM_Encount,TEXTFIELD,CSS,#lms_coursesHighPriorityEnrollCount,
CM_Suggestion,TEXTFIELD,CSS,div > ul.TokensContainer.ui-sortable > li.TokenSearch.ui-sortable-handle > input,
CM_Suggestion_list,BUTTON,CSS,#updateconfig > table > tbody > tr:nth-child(13) > td:nth-child(2) > div > ul.Dropdown > li,
CM_Submit,BUTTON,CSS,#updateconfig > div.trbatchbtn > div > input[type=submit],
