ObjectName,ObjectType,LocatorType,Locator,
TrendingCourses,HREF,CSS,#myTabContent>div>div>div>div>div>div>a,Home Page
Card_Total_reviews,TEXT,CSS,a[href*='$SLUG'] > div.first_display > div.coursedetails > div > span.totalreviews,
Card_Total_rating,TEXT,CSS,a[href*='$SLUG'] > div.first_display > div.coursedetails > div > span.rating,
,,,,
Card_contentText,TEXT,CSS,a[href*='$SLUG'] > div.hover_display > ul > li:nth-child($CODE),
Card_nextbatch,TEXT,CSS,a[href*='$SLUG'] > div.hover_display > span.nextbatch> span:nth-child($CODE),
,,,,
Allcourses_coursecard,TEXT,CSS,#add-master-courses > a,
Allcourses_contentText,TEXT,CSS,a[href*='$SLUG'] > div.card.giTrackElement.giTrackElementHover > div.courseinfo > div.textinfoleft.trainingcourse > ul > li:nth-child($CODE),
,,,,
Courses,BUTTON,CSS,section.all_coutsr_redirect:nth-child(12) > a.browsebtn:nth-child(1),
,,,,
CatPage_coursecard,BUTTON,CSS,php>div>a.clp-course-tile-hover.noprice.hidden-xs.hidden-sm.giTrackElementClpV2,
CatPage_contenttext,HREF,CSS,a.clp-course-tile-hover.noprice.hidden-xs.hidden-sm.giTrackElementClpV2[href='/$SLUG'] >ul >li:nth-child($CODE),
,,,,
Categorypages,HREF,CSS,#footer_category_accord > div > ul > li > a,
,,,,
Categorypages_reviews,TEXT,CSS,a.clp-course-tile-link.giTrackElementClpV2[href='/$SLUG'] >div > div.clp-course-details > div > span.total-reviews,
Categorypages_rating,TEXT,CSS,a.clp-course-tile-link.giTrackElementClpV2[href='/$SLUG'] > div > div.clp-course-details > div > span.rating,
,,,,
Home_careerrelatedcourses,HREF,CSS,section.career_related_programs > div > div > div > div > div > div > div:nth-child(1) > a,
,,,,
Home_recentadditions,HREF,CSS,section.recent_additions > div > div > div > div > div >div >div > a,
,,,,
Course_category,BUTTON,CSS,.dropdown-submenu.dropdown_submenu_multi>a,
Browse_catehome,FORM,CSS,.dropdown-toggle.hidden-xs.hidden-sm.ga_browse_top_cat>span,
