"Lead Source","Lead Medium","Lead Campaign","Lead Term","Lead Content","Course Id","First Name","Last Name","Email","Phone Number","Country Code"
"Facebook test","lead1","Campaign1 live","Teram1","961","776","test","4234156679leadformspgp@tech.edureka.in","5536023117leadforms@tech.edureka.in","9876543210","IN "
"Facebook test","lead1","Campaign1 master","Teram1","1085","520","test","5534976594leadformspgp@tech.edureka.in","2455542004leadforms@tech.edureka.in","9876543210","IN "
"Facebook test","lead1","Campaign1 sp","Teram1","845","14","test","7607075541leadformspgp@tech.edureka.in","5341581606leadforms@tech.edureka.in","9876543212","IN "
